…
``` r
trashwheel_df = 
  read_xlsx(
    "./data/Trash-Wheel-Collection-Totals-8-6-19.xlsx",
    sheet = "Mr. Trash Wheel",
    range = cell_cols("A:N")) %>%
  janitor::clean_names() %>%
  drop_na(dumpster) %>% 
  mutate(
    sports_balls = round(sports_balls),
    sports_balls = as.integer(sports_balls)
  )
trashwheel_df
## # A tibble: 344 x 14
##    dumpster month  year date                weight_tons volume_cubic_ya~
##       <dbl> <chr> <dbl> <dttm>                    <dbl>            <dbl>
##  1        1 May    2014 2014-05-16 00:00:00        4.31               18
##  2        2 May    2014 2014-05-16 00:00:00        2.74               13
##  3        3 May    2014 2014-05-16 00:00:00        3.45               15
##  4        4 May    2014 2014-05-17 00:00:00        3.1                15
##  5        5 May    2014 2014-05-17 00:00:00        4.06               18
##  6        6 May    2014 2014-05-20 00:00:00        2.71               13
##  7        7 May    2014 2014-05-21 00:00:00        1.91                8
##  8        8 May    2014 2014-05-28 00:00:00        3.7                16
##  9        9 June   2014 2014-06-05 00:00:00        2.52               14
## 10       10 June   2014 2014-06-11 00:00:00        3.76               18
## # ... with 334 more rows, and 8 more variables: plastic_bottles <dbl>,
## #   polystyrene <dbl>, cigarette_butts <dbl>, glass_bottles <dbl>,
## #   grocery_bags <dbl>, chip_bags <dbl>, sports_balls <int>,
## #   homes_powered <dbl>
```
…
# row-combine precip_2018 and precip_2017
precip_df = 
  bind_rows(precip_2018, precip_2017) 
  # Type: bind_rows(precp_2018,precp_2017) %>% view in the console to view it.

# left-join: 
precip_m = left_join(precip_df, month_df, by = "month") 
precip_m 
## # A tibble: 24 x 4
##     year month total month_name
##    <dbl> <dbl> <dbl> <chr>     
##  1  2018     1  0.94 January   
##  2  2018     2  4.8  February  
##  3  2018     3  2.69 March     
##  4  2018     4  4.69 April     
##  5  2018     5  9.27 May       
##  6  2018     6  4.77 June      
##  7  2018     7 10.2  July      
##  8  2018     8  6.45 August    
##  9  2018     9 10.5  September 
## 10  2018    10  2.12 October   
## # ... with 14 more rows
```
…
